{
    "type": "service_account",
    "project_id": "tp5-logging",
    "private_key_id": "28809c8ffd34802fc47204ac1dd8253e65ba75c0",
    "private_key": "-----BEGIN PRIVATE KEY-----\nMIIEvgIBADANBgkqhkiG9w0BAQEFAASCBKgwggSkAgEAAoIBAQCkFc10a2pFsNBF\njei0EJ2qsr+R3E07KH5DNtEUSeE1GtWJKCWl7QYBxpeZqhvxYpNHHK0M+ymciuDY\nABgzEqIP0/SZhU4wRQMjeglYkRcuotFujOtkINJpQIuDGgZFVJJlcmEXeUopg8tU\n91Lsdi9JVzyA9u5WjjkyDcgIGS0Y1qLXmZ513H9KU85+qnISAPQOrrxwNPqGeaw6\nv0MyA+wqplFZCG+CI4IQ6rNT3JIsiNMTodewaQn0vgltcenaouGZlreB2oMxJkPz\nFdOrzx+Uidmb3rr+frSCE94gGobeJvbXejaLLh7yVSo/+lbTcoDhuDDi6Jts0BQc\nR2XsRVJtAgMBAAECggEAR5F+6J2FX9pMLVpFOmzY6EBI0Gz/fqMd12FMdoX25bvL\nkaRiL2ofqZyeORb6UyHEzUqTrErMjowAoBYCeBxTdYXkdSWwwdsIEGxFMU0viFbZ\n9FcgwK6UN/ZAI7GxNII7zGXENYHguBTVFj09/Qdbfqi/Kh0KPdSQ2+Uo72dTxTX+\nJufZYGwdorNK9Pqy+bBvu08nCqEHddISA6OtmahCdHWzz0Yk2yThUoMKedv1lSs6\nfZTVSUJshnbSwrUvW3YdMr8J+CPa5BOjDj2AvdHOKqiViOiTrpW3Ho3/qN4iVpSj\nqjoOcIyz5N/XvvPFI70xmQaAL4WMy73zjmUWcefSHQKBgQDVdn2U4totHSLsP4Kk\n+W1yVANyudrNlwqPGiibE1iRu0Ph1vcwt4iao5ZGYy+bt0UyS88XW2t74kz1DlnL\nH/UKABp4ZfbviIIzRadKCYJLc/RhegHaYIh9f5ABWSUjG7ph8nRrfWW+ZujjGkrg\nlHiK6PKBGw5QdvwRU4i1p+Ln9wKBgQDEyGDS7s0R0nqVa//+Rwjwjw4+7C9CQFXj\nDUhdCnCH6jYOtKQQipd/JJHvCD5GUwKYL0uHmLUa23xzjGJIMEOIFS4TCT6jd1yU\nRjiESNYVomiZaEx6h288jQ82PwxJpaZIAr/OmEqACWx4KfGXHjRQPmSvYKGSvzWX\nCx59VfrnuwKBgQDPKQlDHs1CDw6/W/t8A50V4TbfdkNEVpsmuepCZYoFFEoSuL54\nhwWJnczPTp77bec3op6+Ojibp8mr4Vt/Z+o05FjME5iMalyBSc3KamQKueOnXfLC\nbgDIWq30wQDri5NcTyJw1ueQ2uqUzAVy4mQB24TNiuZfbLnATuNT+DSbjQKBgQCz\niebdTMeJZTI2tkzgIMuFP+BNhIwxtCUofWvyh53YQ9aCYEn4VZqXhDQplKnM29vY\nIf6Vfrxt/qdzfTgGiRJ0TG63K44c8sBjABZ8iz/YiU9J+CEfAgZ5hnHEmo2JfDtU\nJD4ALm56lx6CHDKyH/q249ZVNKL2EsLARoLQ8+tyFQKBgDIgCMaLSeyXc+8uyHNz\nQYgdZS4rg9EGF1FLKeZ08DyLUIuaz7c4el/p67X/NpXLcjcv7FAffmJOWGFQVxQB\n98ngIScK/P4Z5rqYYXJ1dvThRLWiX9amPkvplrojPAALNRAsPoOhVWW/DUv9oA+J\nH+ICuMR43DeynzKGrw33zlfb\n-----END PRIVATE KEY-----\n",
    "client_email": "tp5-compte-service@tp5-logging.iam.gserviceaccount.com",
    "client_id": "113638318163145143030",
    "auth_uri": "https://accounts.google.com/o/oauth2/auth",
    "token_uri": "https://oauth2.googleapis.com/token",
    "auth_provider_x509_cert_url": "https://www.googleapis.com/oauth2/v1/certs",
    "client_x509_cert_url": "https://www.googleapis.com/robot/v1/metadata/x509/tp5-compte-service%40tp5-logging.iam.gserviceaccount.com",
    "universe_domain": "googleapis.com"
  }